{
  "formatVersion": 1,
  "database": {
    "version": 1,
    "identityHash": "c8ea8048564fa0c74b27622d08722a25",
    "entities": [
      {
        "tableName": "vehicule",
        "createSql": "CREATE TABLE IF NOT EXISTS `${TABLE_NAME}` (`idVehivule` INTEGER PRIMARY KEY AUTOINCREMENT NOT NULL, `id` REAL NOT NULL, `nom` TEXT NOT NULL, `image` TEXT NOT NULL, `disponible` REAL NOT NULL, `prixjournalierbase` REAL NOT NULL, `promotion` REAL NOT NULL, `agemin` REAL NOT NULL, `categorieco2` TEXT NOT NULL)",
        "fields": [
          {
            "fieldPath": "idVehivule",
            "columnName": "idVehivule",
            "affinity": "INTEGER",
            "notNull": true
          },
          {
            "fieldPath": "id",
            "columnName": "id",
            "affinity": "REAL",
            "notNull": true
          },
          {
            "fieldPath": "nom",
            "columnName": "nom",
            "affinity": "TEXT",
            "notNull": true
          },
          {
            "fieldPath": "image",
            "columnName": "image",
            "affinity": "TEXT",
            "notNull": true
          },
          {
            "fieldPath": "disponible",
            "columnName": "disponible",
            "affinity": "REAL",
            "notNull": true
          },
          {
            "fieldPath": "prixjournalierbase",
            "columnName": "prixjournalierbase",
            "affinity": "REAL",
            "notNull": true
          },
          {
            "fieldPath": "promotion",
            "columnName": "promotion",
            "affinity": "REAL",
            "notNull": true
          },
          {
            "fieldPath": "agemin",
            "columnName": "agemin",
            "affinity": "REAL",
            "notNull": true
          },
          {
            "fieldPath": "categorieco2",
            "columnName": "categorieco2",
            "affinity": "TEXT",
            "notNull": true
          }
        ],
        "primaryKey": {
          "columnNames": [
            "idVehivule"
          ],
          "autoGenerate": true
        },
        "indices": [],
        "foreignKeys": []
      }
    ],
    "views": [],
    "setupQueries": [
      "CREATE TABLE IF NOT EXISTS room_master_table (id INTEGER PRIMARY KEY,identity_hash TEXT)",
      "INSERT OR REPLACE INTO room_master_table (id,identity_hash) VALUES(42, 'c8ea8048564fa0c74b27622d08722a25')"
    ]
  }
}